BEGIN:
0002      5      "Block system is started up"
0002      7      "Block system is running"
0001      8      "Block system is down"
0001      11      "System Fail"
0002      12      "System Recovery"
0001      26      "Communication to MCCR is failed"
0002      27      "Communication to MCCR is recovered"
0001      31      "Communication to up-Adjacent station is failed"
0002      32      "Communication to up-Adjacent station is recovered"
0001      33      "Communication to down-Adjacent station is failed"
0002      34      "Communication to down-Adjacent station is recovered"
0004      62      "User Login"
0004      101      "SYSTEM RUN is operated"
0004      102      "SYSTEM Initialize operated"
0004      103      "System time set operated"
0002	  175	   "reset counter increased to"
0002	  176	   "reset counter changed to"
0002      211      "track is occupied"
0002      212      "track is unoccupied"
0001	  221	   "track is disturbed"
0002	  222	   "track is recovered"
0002      302      "Signal is recovered"
0002      330      "signal GO (Y) is displayed"
0002      331      "signal GO (G) is displayed"
0002      332      "signal STOP (R) is displayed"
0002      333      "signal GO (YY) is displayed"
0002      336      "signal GO (1Y) is displayed"
0002      337      "signal GO (Callon) is displayed"
0002      338      "signal GO (Shunt) is displayed"
0001      340      "signal Green LED Lamp fail"
0001      341      "signal Yellow LED Lamp fail"
0001      342      "signal Red LED Lamp fail"
0001      343      "signal CallOn LED Lamp fail"
0002      344      "signal Green LED Lamp Recovery"
0002      345      "signal Yellow LED Lamp Recovery"
0002      346      "signal Red LED Lamp Recovery"
0002      347      "signal CallOn LED Lamp Recovery"
0001      354      "signal Loop(Route) Indicator fail"
0000      358      "signal Lamp is Off"
0000      359      "signal Lamp is On"
0001      363      "signal Loop Indicator fail"
0002      364	   "signal lamp is OFF by ALR control"
0002      365      "signal lamp is recovered by ALR control"
0002	  366	   "signal GO (Shunt) is turned off"
0002	  367	   "signal GO (Callon) is turned off"
0001	  368	   "signal Shunt Lamp fail"
0002	  369	   "signal Shunt Lamp Recovery"
0002      501      "CA button is ON"
0002      502      "CA button is OFF"
0002      503      "LCR button is ON"
0002      504      "LCR button is OFF"
0002      505      "LCG button is ON"
0002      506      "LCG button is OFF"
0004      507      "CA Ack is operated"
0004      508      "CBB Emergency operated"
0004      509      "Up direction TGB CA operated"
0004      510      "Up direction TGB LCR operated"
0004      511      "Up direction TGB BCB operated"
0002      512      "Up direction TCB LCG requested"
0004      513      "Up direction TCB LCG operated"
0004      514      "Up direction TCB BRB operated"
0004      515      "Down direction TGB CA operated"
0004      516      "Down direction TGB LCR operated"
0004      517      "Down direction TGB BCB operated"
0002      518      "Down direction TCB LCG requested"
0004      519      "Down direction TCB LCG operated"
0004      520      "Down direction TCB BRB operated"
0002	  521	   "BCB button is ON"
0002	  522	   "BCB button is OFF"
0002	  523	   "BRB button is ON"
0002	  524	   "BRB button is OFF"
0004	  531	   "Up direction BGR clear requested"
0004	  532	   "Up direction BCR clear requested"
0004	  533	   "Down direction BGR clear requested"
0004	  534	   "Down direction BCR clear requested"
0004	  535	   "Up2 direction BGR clear requested"
0004	  536	   "Up2 direction BCR clear requested"
0004	  537	   "Down2 direction BGR clear requested"
0004	  538	   "Down2 direction BCR clear requested"
0002	  541	   "Up direction BGR Occupied"
0002	  542	   "Up direction BGR Cleared"
0002	  543	   "Up direction BCR Occupied"
0002	  544	   "Up direction BCR Cleared"
0002	  545	   "Down direction BGR Occupied"
0002	  546	   "Down direction BGR Cleared"
0002	  547	   "Down direction BCR Occupied"
0002	  548	   "Down direction BCR Cleared"
0002	  549	   "Up2 direction BGR Occupied"
0002	  550	   "Up2 direction BGR Cleared"
0002	  551	   "Up2 direction BCR Occupied"
0002	  552	   "Up2 direction BCR Cleared"
0002	  553	   "Down2 direction BGR Occupied"
0002	  554	   "Down2 direction BGR Cleared"
0002	  555	   "Down2 direction BCR Occupied"
0002	  556	   "Down2 direction BCR Cleared"
0004      561      "Up2 direction BCB operated"
0004      562      "Up2 direction BRB operated"
0004      563      "Down2 direction BCB operated"
0004      564      "Down2 direction BRB operated"
0004	  571	   "Up direction BGR clear Accepted"
0004	  572	   "Up direction BCR clear Accepted"
0004	  573	   "Down direction BGR clear Accepted"
0004	  574	   "Down direction BCR clear Accepted"
0004	  575	   "Up2 direction BGR clear Accepted"
0004	  576	   "Up2 direction BCR clear Accepted"
0004	  577	   "Down2 direction BGR clear Accepted"
0004	  578	   "Down2 direction BCR clear Accepted"
0004	  581	   "Up direction BGR clear Declined"
0004	  582	   "Up direction BCR clear Declined"
0004	  583	   "Down direction BGR clear Declined"
0004	  584	   "Down direction BCR clear Declined"
0004	  585	   "Up2 direction BGR clear Declined"
0004	  586	   "Up2 direction BCR clear Declined"
0004	  587	   "Down2 direction BGR clear Declined"
0004	  588	   "Down2 direction BCR clear Declined"
0004      589      "Up2 direction TGB CA operated"
0004      590      "Up2 direction TGB LCR operated"
0002      591      "Up2 direction TCB LCG requested"
0004      592      "Up2 direction TCB LCG operated"
0004      593      "Down2 direction TGB CA operated"
0004      594      "Down2 direction TGB LCR operated"
0002      595      "Down2 direction TCB LCG requested"
0004      596      "Down2 direction TCB LCG operated"
0002       701		 "Up direction BGR train sweeping started"
0002       702		 "Up direction BCR train sweeping started"
0002       703		 "Down direction BGR train sweeping started"
0002       704		 "Down direction BCR train sweeping started"
0002       705		 "Up2 direction BGR train sweeping started"
0002       706		 "Up2 direction BCR train sweeping started"
0002       707		 "Down2 direction BGR train sweeping started"
0002       708		 "Down2 direction BCR train sweeping started"
0002       711		 "Up direction BGR train sweeping completed"
0002       712		 "Up direction BCR train sweeping completed"
0002       713		 "Down direction BGR train sweeping completed"
0002       714		 "Down direction BCR train sweeping completed"
0002       715		 "Up2 direction BGR train sweeping completed"
0002       716		 "Up2 direction BCR train sweeping completed"
0002       717		 "Down2 direction BGR train sweeping completed"
0002       718		 "Down2 direction BCR train sweeping completed"
0004	  719	   "Up direction BGR clear Accepted / Waiting for train sweeping"
0004	  720	   "Up direction BCR clear Accepted / Waiting for train sweeping"
0004	  721	   "Down direction BGR clear Accepted / Waiting for train sweeping"
0004	  722	   "Down direction BCR clear Accepted / Waiting for train sweeping"
0004	  723	   "Up2 direction BGR clear Accepted / Waiting for train sweeping"
0004	  724	   "Up2 direction BCR clear Accepted / Waiting for train sweeping"
0004	  725	   "Down2 direction BGR clear Accepted / Waiting for train sweeping"
0004	  726	   "Down2 direction BCR clear Accepted / Waiting for train sweeping"
0002      800      "Axle Counter is occupied"
0002      801      "Axle Counter is unoccupied"
0001      802      "Axle Counter is disturbed"
0002      803      "Axle Counter is released to disturb state"
0004      811      "Axle Counter reset request is operated"
0002      812      "Axle Counter reset is requested"
0002	  813	   "Axle Counter reset is accepted"
0002	  814	   "Axle Counter reset is declined"
0002	  815	   "Axle Counter reset"
0002	  821	   "Super-Block is Activated"
0002	  822	   "Super-Block is Deactivated"
END: