DTSIN   0- 17 TD.1C-01T
DTSIN   0- 18 TD.1C-02T
DTSIN   0- 19 TD.1C-03T
DTSIN   0- 20 TD.1C-04T
DTSIN   0- 21 TD.1C-05T
DTSIN   0- 22 TD.1D-08T
DTSIN   0- 23 TD.1D-09T
DTSIN   0- 24 TD.1D-010T
DTSIN   0- 25 TD.2A-07T
DTSIN   0- 26 TD.2A-08T
DTSIN   0- 27 TD.2A-09T
DTSIN   0- 28 TD.2A-010T
DTSIN   0- 29 TD.2A-011T
DTSIN   0- 30 TD.2A-012T
DTSIN   0- 31 TD.2A-013T
DTSIN   0- 40 TD.3A-BG1T
DTSIN   0- 41 TD.3A-B327T
DTSIN   0- 42 TD.3A-B527T
DTSIN   0- 43 TD.3B-BG1T
DTSIN   0- 44 TD.3B-B327T
DTSIN   0- 45 TD.3B-B527T
DTSIN   0- 46 TD.3C-BG1T
DTSIN   0- 47 TD.3C-B327T
DTSIN   0- 48 TD.3C-B527T
DTSIN   0- 49 TD.3D-BG1T
DTSIN   0- 50 TD.3D-B327T
DTSIN   0- 51 TD.3D-B527T
DTSIN   0- 52 TD.3E-BG1T
DTSIN   0- 53 TD.3E-B327T
DTSIN   0- 54 TD.3E-B527T
DTSIN   0- 55 TD.3F-BG1T
DTSIN   0- 56 TD.3F-B327T
DTSIN   0- 57 TD.3F-B527T
DTSIN   0- 58 TD.3G-BG1T
DTSIN   0- 59 TD.3G-B327T
DTSIN   0- 60 TD.3G-B527T
DTSIN   0- 61 TD.3H-B327T
DTSIN   0- 62 TD.3H-B527T
DTSIN   0- 63 TD.3I-B327T
DTSIN   0- 64 TD.3I-B527T
DTSIN   0- 65 TD.3H-BG1T
DTSIN   0- 66 TD.3K-B327T
DTSIN   0- 67 TD.3K-B527T
DTSIN   0- 68 TD.3K-BK1T
DTSIN   0- 69 TD.3L-B327T
DTSIN   0- 70 TD.3L-B527T
DTSIN   0- 71 TD.3L-BK1T
DTSIN   0- 72 TD.4A-B324T
DTSIN   0- 73 TD.4A-B524T
DTSIN   0- 74 TD.4B-B324T
DTSIN   0- 75 TD.4B-B524T
DTSIN   0- 76 TD.4C-B324T
DTSIN   0- 77 TD.4C-B524T
DTSIN   0- 78 TD.4D-B324T
DTSIN   0- 79 TD.4D-B524T
DTSIN   0- 80 TD.4E-B524T
DTSIN   0- 90 TKBK.B334T
DTSIN   0- 91 TKBK.B332T
DTSIN   0- 92 TKBK.B330T
DTSIN   0- 93 TKBK.B328T
DTSIN   0- 94 TKBK.B324T
DTSIN   0- 95 TKBK.B534T
DTSIN   0- 96 TKBK.B532T
DTSIN   0- 97 TKBK.B530T
DTSIN   0- 98 TKBK.B528T
DTSIN   0- 99 TKBK.B524T
DTSIN   0-101 TKBK.B505T
DTSIN   0-102 TKBK.B507T
DTSIN   0-103 TKBK.B509T
DTSIN   0-104 TKBK.B511T
DTSIN   0-105 TKBK.B513T
DTSIN   0-106 TKBK.B515T
DTSIN   0-107 TKBK.B517T
DTSIN   0-108 TKBK.B519T
DTSIN   0-109 TKBK.B521T
DTSIN   0-110 TKBK.B523T
DTSIN   0-111 TKBK.B527T
DTSIN   0-113 TKBK.B305T
DTSIN   0-114 TKBK.B307T
DTSIN   0-115 TKBK.B309T
DTSIN   0-116 TKBK.B311T
DTSIN   0-117 TKBK.B313T
DTSIN   0-118 TKBK.B315T
DTSIN   0-119 TKBK.B317T
DTSIN   0-120 TKBK.B319T
DTSIN   0-121 TKBK.B321T
DTSIN   0-122 TKBK.B323T
DTSIN   0-123 TKBK.B327T
DTSIN   0-124 TKBK.BK1T
DTSIN   0-125 TKBK.BG1T
DTSIN   1-  6 TK.29AT
DTSIN   1-  7 TK.39BT
DTSIN   1-  8 TK.CT
DTSIN   1-  9 TK.28T
DTSIN   1- 10 TK.29BT
DTSIN   1- 11 TK.39AT
DTSIN   1- 12 TK.55BT
DTSIN   1- 13 TK.01T
DTSIN   1- 14 TK.02T
DTSIN   1- 15 TK.68T
DTSIN   1- 16 TK.03T
DTSIN   1- 17 TK.58T
DTSIN   1- 18 TK.51AT
DTSIN   1- 19 TK.X2T
DTSIN   1- 20 TK.15BT
DTSIN   1- 21 TK.34T
DTSIN   1- 22 TK.04T
DTSIN   1- 23 TK.54T
DTSIN   1- 24 TK.51BT
DTSIN   1- 25 TK.X1T
DTSIN   1- 26 TK.13BT
DTSIN   1- 27 TK.15AT
DTSIN   1- 28 TK.05T
DTSIN   1- 29 TK.53T
DTSIN   1- 30 TK.52AT
DTSIN   1- 31 TK.YT
DTSIN   1- 32 TK.52BT
DTSIN   1- 33 TK.06T
DTSIN   1- 34 TK.13AT
DTSIN   1- 35 TK.11BT
DTSIN   1- 36 TK.56T
DTSIN   1- 37 TK.07T
DTSIN   1- 38 TK.24T
DTSIN   1- 39 TK.014T
DTSIN   1- 40 TK.11AT
DTSIN   1- 41 TK.63AT
DTSIN   1- 42 TK.60T
DTSIN   1- 43 TK.08T
DTSIN   1- 44 TK.18T
DTSIN   1- 46 TK.17T
DTSIN   1- 47 TK.21T
DTSIN   1- 48 TK.09T
DTSIN   1- 49 TK.19T
DTSIN   1- 50 TK.010T
DTSIN   1- 51 TK.22T
DTSIN   1- 52 TK.011T
DTSIN   1- 54 TK.72T
DTSIN   1- 55 TK.012T
DTSIN   1- 56 TK.013T
DTSIN   1- 57 TK.ZT
DTSIN   1- 65 SWPOS.11(+)
DTSIN   1- 66 SWPOS.12(+)
DTSIN   1- 67 SWPOS.13(+)
DTSIN   1- 68 SWPOS.15(+)
DTSIN   1- 70 SWPOS.29(+)
DTSIN   1- 71 SWPOS.34(+)
DTSIN   1- 72 SWPOS.14(+)
DTSIN   1- 73 SWPOS.16(+)
DTSIN   1- 74 SWPOS.17(+)
DTSIN   1- 75 SWPOS.19(+)
DTSIN   1- 76 SWPOS.20(+)
DTSIN   1- 77 SWPOS.18(+)
DTSIN   1- 82 SWPOS.39(+)
DTSIN   1- 83 SWPOS.40(+)
DTSIN   1- 84 SWPOS.43(+)
DTSIN   1- 85 SWPOS.38(+)
DTSIN   1- 86 SWPOS.46(+)
DTSIN   1- 87 SWPOS.30(+)
DTSIN   1- 88 SWPOS.27(+)
DTSIN   1- 89 SWPOS.51(+)
DTSIN   1- 90 SWPOS.55(+)
DTSIN   1- 91 SWPOS.52(+)
DTSIN   1- 92 SWPOS.53(+)
DTSIN   1- 93 SWPOS.54(+)
DTSIN   1- 94 SWPOS.56(+)
DTSIN   1- 95 SWPOS.57(+)
DTSIN   1- 97 SWPOS.64(+)
DTSIN   1- 98 SWPOS.66(+)
DTSIN   1- 99 SWPOS.70(+)
DTSIN   1-100 SWPOS.58(+)
DTSIN   1-102 SWPOS.62(+)
DTSIN   1-103 SWPOS.68(+)
DTSIN   1-104 SWPOS.60(+)
DTSIN   1-105 SWPOS.61(+)
DTSIN   1-106 SWPOS.63(+)
DTSIN   1-107 SWPOS.65(+)
DTSIN   1-108 SWPOS.72(+)
DTSIN   1-110 SWPOS.62(-)
DTSIN   1-111 SWPOS.68(-)
DTSIN   1-112 SWPOS.60(-)
DTSIN   1-113 SWPOS.61(-)
DTSIN   1-114 SWPOS.63(-)
DTSIN   1-115 SWPOS.65(-)
DTSIN   1-116 SWPOS.72(-)
DTSIN   1-118 SWLOCK.11
DTSIN   1-119 SWLOCK.12
DTSIN   1-120 SWLOCK.13
DTSIN   1-121 SWLOCK.15
DTSIN   1-123 SWLOCK.29
DTSIN   1-124 SWLOCK.34
DTSIN   1-125 SWLOCK.14
DTSIN   1-126 SWLOCK.16
DTSIN   1-127 SWLOCK.17
DTSIN   2-  0 SWLOCK.19
DTSIN   2-  2 SWLOCK.18
DTSIN   2-  7 SWLOCK.39
DTSIN   2-  8 SWLOCK.40
DTSIN   2-  9 SWLOCK.43
DTSIN   2- 10 SWLOCK.38
DTSIN   2- 11 SWLOCK.46
DTSIN   2- 12 SWLOCK.30
DTSIN   2- 13 SWLOCK.27
DTSIN   2- 14 SWLOCK.51
DTSIN   2- 15 SWLOCK.55
DTSIN   2- 16 SWLOCK.52
DTSIN   2- 17 SWLOCK.53
DTSIN   2- 18 SWLOCK.54
DTSIN   2- 19 SWLOCK.56
DTSIN   2- 20 SWLOCK.57
DTSIN   2- 22 SWLOCK.64
DTSIN   2- 23 SWLOCK.66
DTSIN   2- 24 SWLOCK.70
DTSIN   2- 25 SWLOCK.58
DTSIN   2- 27 SWLOCK.62
DTSIN   2- 28 SWLOCK.68
DTSIN   2- 29 SWLOCK.60
DTSIN   2- 30 SWLOCK.61
DTSIN   2- 31 SWLOCK.63
DTSIN   2- 32 SWLOCK.65
DTSIN   2- 33 SWLOCK.72
DTSIN   2- 41 SWIO.11
DTSIN   2- 42 SWIO.12
DTSIN   2- 43 SWIO.13
DTSIN   2- 44 SWIO.15
DTSIN   2- 46 SWIO.29
DTSIN   2- 47 SWIO.34
DTSIN   2- 48 SWIO.14
DTSIN   2- 49 SWIO.16
DTSIN   2- 50 SWIO.17
DTSIN   2- 51 SWIO.19
DTSIN   2- 52 SWIO.20
DTSIN   2- 53 SWIO.18
DTSIN   2- 58 SWIO.39
DTSIN   2- 59 SWIO.40
DTSIN   2- 60 SWIO.43
DTSIN   2- 61 SWIO.38
DTSIN   2- 62 SWIO.46
DTSIN   2- 63 SWIO.30
DTSIN   2- 64 SWIO.27
DTSIN   2- 65 SWIO.51
DTSIN   2- 66 SWIO.55
DTSIN   2- 67 SWIO.52
DTSIN   2- 68 SWIO.53
DTSIN   2- 69 SWIO.54
DTSIN   2- 70 SWIO.56
DTSIN   2- 71 SWIO.57
DTSIN   2- 73 SWIO.64
DTSIN   2- 74 SWIO.66
DTSIN   2- 75 SWIO.70
DTSIN   2- 76 SWIO.58
DTSIN   2- 78 SWIO.62
DTSIN   2- 79 SWIO.68
DTSIN   2- 80 SWIO.60
DTSIN   2- 81 SWIO.61
DTSIN   2- 82 SWIO.63
DTSIN   2- 83 SWIO.65
DTSIN   2- 84 SWIO.72
DTSIN   2- 94 TKWSP.01T.DN
DTSIN   2- 95 TKWSP.02T.DN
DTSIN   2- 96 TKWSP.03T.DN
DTSIN   2- 97 TKWSP.04T.DN
DTSIN   2- 98 TKWSP.05T.DN
DTSIN   2- 99 TKWSP.06T.UP
DTSIN   2-100 TKWSP.07T.UP
DTSIN   2-101 TKWSP.08T.UP
DTSIN   2-102 TKWSP.09T.UP
DTSIN   2-103 TKWSP.010T.UP
DTSIN   2-104 TKWSP.011T.UP
DTSIN   2-105 TKWSP.012T.UP
DTSIN   2-106 TKWSP.013T.UP
DTSIN   2-107 TKWSP.BK1T
DTSIN   2-108 TKWSP.B324T
DTSIN   2-109 TKWSP.B524T
DTSIN   2-110 TKWSP.B527T
DTSIN   2-111 TKWSP.B327T
DTSIN   2-112 TKWSP.BG1T
DTSIN   2-113 TKWSP.08T.DN
DTSIN   2-114 TKWSP.09T.DN
DTSIN   2-115 TKWSP.010T.DN
DTSIN   2-119 SGGOM.1C
DTSIN   2-120 SGGOM.1D
DTSIN   2-121 SGGOM.2A
DTSIN   2-123 SGGOM.3B
DTSIN   2-124 SGGOM.3C
DTSIN   2-125 SGGOM.3D
DTSIN   2-126 SGGOM.3E
DTSIN   2-127 SGGOM.3F
DTSIN   3-  0 SGGOM.3G
DTSIN   3-  2 SGGOM.3I
DTSIN   3-  3 SGGOM.3J
DTSIN   3-  4 SGGOM.3K
DTSIN   3-  5 SGGOM.3L
DTSIN   3-  6 SGGOM.4A
DTSIN   3-  7 SGGOM.4B
DTSIN   3-  8 SGGOM.4C
DTSIN   3-  9 SGGOM.4D
DTSIN   3- 10 SGGOM.4E
DTSIN   3- 12 SGGOM.X2L
DTSIN   3- 13 SGGOM.Y1R
DTSIN   3- 14 SGGOM.Y2R
DTSIN   3- 23 SGIO.1C
DTSIN   3- 24 SGIO.1D
DTSIN   3- 25 SGIO.2A
DTSIN   3- 27 SGIO.3B
DTSIN   3- 28 SGIO.3C
DTSIN   3- 29 SGIO.3D
DTSIN   3- 30 SGIO.3E
DTSIN   3- 31 SGIO.3F
DTSIN   3- 32 SGIO.3G
DTSIN   3- 33 SGIO.3H
DTSIN   3- 34 SGIO.3I
DTSIN   3- 35 SGIO.3J
DTSIN   3- 36 SGIO.3K
DTSIN   3- 37 SGIO.3L
DTSIN   3- 38 SGIO.4A
DTSIN   3- 39 SGIO.4B
DTSIN   3- 40 SGIO.4C
DTSIN   3- 41 SGIO.4D
DTSIN   3- 42 SGIO.4E
DTSIN   3- 44 SGIO.X2L
DTSIN   3- 45 SGIO.Y1R
DTSIN   3- 46 SGIO.Y2R
DTSIN   3- 48 SGCALL.1D
DTSIN   3- 52 SGROUTE.3B
DTSIN   3- 53 SGROUTE.3C
DTSIN   3- 54 SGROUTE.3D
DTSIN   3- 55 SGROUTE.3E
DTSIN   3- 56 SGROUTE.3F
DTSIN   3- 57 SGROUTE.3G
DTSIN   3- 58 SGROUTE.3H
DTSIN   3- 59 SGROUTE.3I
DTSIN   3- 60 SGROUTE.3J
DTSIN   3- 61 SGROUTE.3K
DTSIN   3- 62 SGROUTE.3L
DTSIN   3- 63 SGROUTE.4A
DTSIN   3- 64 SGROUTE.4B
DTSIN   3- 65 SGROUTE.4C
DTSIN   3- 66 SGROUTE.4D
DTSIN   3- 69 SGROUTE.1C
DTSIN   3- 70 SGROUTE.2A
DTSIN   3- 72 SGROUTE.1D
DTSIN   3- 77 SGTTB.4D
DTSIN   3- 78 SGTTB.1C
DTSIN   3- 79 SGTTB.4E
DTSIN   3- 81 SGTTB.3H
DTSIN   3- 82 SGTTB.2A
DTSIN   3- 83 SGTTB.3I
DTSIN   3- 86 SGAPP.1A
DTSIN   3- 87 SGAPP.1B
DTSIN   3- 88 SGAPP.1C
DTSIN   3- 89 SGAPP.1D
DTSIN   3- 90 SGAPP.2A
DTSIN   3- 91 SGAPP.2B
DTSIN   3- 92 SGAPP.3B
DTSIN   3- 93 SGAPP.3C
DTSIN   3- 94 SGAPP.3D
DTSIN   3- 95 SGAPP.3E
DTSIN   3- 96 SGAPP.3F
DTSIN   3- 97 SGAPP.3G
DTSIN   3- 98 SGAPP.3H
DTSIN   3- 99 SGAPP.3I
DTSIN   3-100 SGAPP.3J
DTSIN   3-101 SGAPP.3K
DTSIN   3-102 SGAPP.3L
DTSIN   3-103 SGAPP.4A
DTSIN   3-104 SGAPP.4B
DTSIN   3-105 SGAPP.4C
DTSIN   3-106 SGAPP.4D
DTSIN   3-107 SGAPP.4E
DTSIN   3-113 SGGOSH.11L
DTSIN   3-114 SGGOSH.13L
DTSIN   3-115 SGGOSH.12L
DTSIN   3-116 SGGOSH.14L
DTSIN   3-117 SGGOSH.15L
DTSIN   3-118 SGGOSH.29R
DTSIN   3-119 SGGOSH.30R
DTSIN   3-120 SGGOSH.31R
DTSIN   3-121 SGGOSH.32R
DTSIN   3-122 SGGOSH.33R
DTSIN   3-123 SGGOSH.34R
DTSIN   3-124 SGGOSH.35R
DTSIN   3-125 SGGOSH.36R
DTSIN   3-126 SGGOSH.37R
DTSIN   3-127 SGGOSH.38R
DTSIN   4-  0 SGGOSH.39R
DTSIN   4-  2 SGGOSH.41R
DTSIN   4-  4 SGGOSH.51R
DTSIN   4-  6 SGGOSH.65L
DTSIN   4-  7 SGGOSH.64L
DTSIN   4-  8 SGGOSH.63L
DTSIN   4-  9 SGGOSH.62L
DTSIN   4- 10 SGGOSH.61L
DTSIN   4- 11 SGGOSH.60L
DTSIN   4- 12 SGGOSH.59L
DTSIN   4- 13 SGGOSH.58L
DTSIN   4- 14 SGGOSH.57L
DTSIN   4- 15 SGGOSH.56L
DTSIN   4- 16 SGGOSH.54R
DTSIN   4- 17 SGGOSH.66L
DTSIN   4- 18 SGGOSH.28R
DTSIN   4- 21 SGPMFROM.ALO
DTSIN   4- 22 SGPMTO.ALO
DTSIN   4- 23 SGPMFROM.BLO
DTSIN   4- 24 SGPMTO.BLO
DTSIN   4- 27 SGBKIO.RX322
DTSIN   4- 38 SGBKIO.RX522
DTSIN   4- 49 SGBKIO.RX529
DTSIN   4- 53 SGBKIO.RX329
DTSIN   4- 59 SWPOS.11(-)
DTSIN   4- 60 SWPOS.12(-)
DTSIN   4- 61 SWPOS.13(-)
DTSIN   4- 62 SWPOS.15(-)
DTSIN   4- 64 SWPOS.29(-)
DTSIN   4- 65 SWPOS.34(-)
DTSIN   4- 66 SWPOS.14(-)
DTSIN   4- 67 SWPOS.16(-)
DTSIN   4- 68 SWPOS.17(-)
DTSIN   4- 69 SWPOS.19(-)
DTSIN   4- 70 SWPOS.20(-)
DTSIN   4- 71 SWPOS.18(-)
DTSIN   4- 76 SWPOS.39(-)
DTSIN   4- 77 SWPOS.40(-)
DTSIN   4- 78 SWPOS.43(-)
DTSIN   4- 79 SWPOS.38(-)
DTSIN   4- 80 SWPOS.46(-)
DTSIN   4- 81 SWPOS.30(-)
DTSIN   4- 82 SWPOS.27(-)
DTSIN   4- 83 SWPOS.51(-)
DTSIN   4- 84 SWPOS.55(-)
DTSIN   4- 85 SWPOS.52(-)
DTSIN   4- 86 SWPOS.53(-)
DTSIN   4- 87 SWPOS.54(-)
DTSIN   4- 88 SWPOS.56(-)
DTSIN   4- 89 SWPOS.57(-)
DTSIN   4- 91 SWPOS.64(-)
DTSIN   4- 92 SWPOS.66(-)
DTSIN   4- 93 SWPOS.70(-)
DTSIN   4- 94 SWPOS.58(-)
DTSIN   4- 97 SGTTCB.1B
DTSIN   4- 98 SGTTCB.4D
DTSIN   4- 99 SGTTCB.1C
DTSIN   4-100 SGTTCB.4E
DTSIN   4-101 SGTTCB.2B
DTSIN   4-102 SGTTCB.3H
DTSIN   4-103 SGTTCB.2A
DTSIN   4-104 SGTTCB.3I
DTSIN   4-108 SGPREAPP.1C
DTSIN   4-109 SGPREAPP.1D
DTSIN   4-110 SGPREAPP.2A
DTSIN   4-112 SGPREAPP.3B
DTSIN   4-113 SGPREAPP.3C
DTSIN   4-114 SGPREAPP.3D
DTSIN   4-115 SGPREAPP.3E
DTSIN   4-116 SGPREAPP.3F
DTSIN   4-117 SGPREAPP.3G
DTSIN   4-118 SGPREAPP.3H
DTSIN   4-119 SGPREAPP.3I
DTSIN   4-120 SGPREAPP.3J
DTSIN   4-121 SGPREAPP.3K
DTSIN   4-122 SGPREAPP.3L
DTSIN   4-123 SGPREAPP.4A
DTSIN   4-124 SGPREAPP.4B
DTSIN   4-125 SGPREAPP.4C
DTSIN   4-126 SGPREAPP.4D
DTSIN   4-127 SGPREAPP.4E
DTSIN   5-  7 TD.1D-014T
DTSIN   5-  8 TD.2A-014T
DTSIN   5- 10 TD.3J-B327T
DTSIN   5- 11 TD.3J-B527T
DTSIN   5- 12 TD.3J-BK1T
DTSIN   5- 17 TK.DT
DTSIN   5- 18 TK.FT
DTSIN   5- 21 TK.IT
DTSIN   5- 22 TK.PT
DTSIN   5- 23 TK.QT
DTSIN   5- 24 TK.RT
DTSIN   5- 25 TK.ST
DTSIN   5- 26 TK.014T
DTSIN   5- 28 TK.55AT
DTSIN   5- 29 TK.63BT
DTSIN   5- 30 TK.65T
DTSIN   5- 43 TKWSP.014T.UP
DTSIN   5- 44 TKWSP.014T.DN
DTSIN   5- 49 SGGOSH.3A
DTSIN   5- 50 SGIO.3A
DTSIN   5- 51 SGROUTE.3A
DTSIN   5- 52 SGAPP.3A
DTSIN   5- 53 SGPREAPP.3A
DTSIN   5- 58 SGGOSH.55R
DTSOUT  0- 12 TTCB
DTSOUT POS 0B10(7E20) - 010F SGPB.1A
DTSOUT POS 0B11(7E22) - 0110 SGPB.1B
DTSOUT POS 0B12(7E24) - 0200 SGPB.1C
DTSOUT POS 0B13(7E26) - 0200 SGPB.1D
DTSOUT POS 0B14(7E28) - 0200 SGPB.2A
DTSOUT POS 0B15(7E2A) - 0111 SGPB.2B
DTSOUT POS 0B16(7E2C) - 0200 SGPB.3B
DTSOUT POS 0B17(7E2E) - 0200 SGPB.3C
DTSOUT POS 0B18(7E30) - 0200 SGPB.3D
DTSOUT POS 0B19(7E32) - 0200 SGPB.3E
DTSOUT POS 0B1A(7E34) - 0200 SGPB.3F
DTSOUT POS 0B1B(7E36) - 0200 SGPB.3G
DTSOUT POS 0B1C(7E38) - 0200 SGPB.3H
DTSOUT POS 0B1D(7E3A) - 0200 SGPB.3I
DTSOUT POS 0B1E(7E3C) - 0200 SGPB.3J
DTSOUT POS 0B1F(7E3E) - 0200 SGPB.3K
DTSOUT POS 0B20(7E40) - 0200 SGPB.3L
DTSOUT POS 0B21(7E42) - 0200 SGPB.4A
DTSOUT POS 0B22(7E44) - 0200 SGPB.4B
DTSOUT POS 0B23(7E46) - 0200 SGPB.4C
DTSOUT POS 0B24(7E48) - 0200 SGPB.4D
DTSOUT POS 0B25(7E4A) - 0200 SGPB.4E
DTSOUT POS 0B26(7E4C) - 0200 SGPB.3A
DTSOUT POS 0B29(7E52) - 0300 TKPB.014T.UP
DTSOUT POS 0B2A(7E54) - 0300 TKPB.014T.DN
DTSOUT POS 0B2B(7E56) - 0300 TKPB.01T.DN
DTSOUT POS 0B2C(7E58) - 0300 TKPB.02T.DN
DTSOUT POS 0B2D(7E5A) - 0300 TKPB.03T.DN
DTSOUT POS 0B2E(7E5C) - 0300 TKPB.04T.DN
DTSOUT POS 0B2F(7E5E) - 0300 TKPB.05T.DN
DTSOUT POS 0B30(7E60) - 0300 TKPB.06T.DN
DTSOUT POS 0B31(7E62) - 0300 TKPB.07T.UP
DTSOUT POS 0B32(7E64) - 0300 TKPB.08T.UP
DTSOUT POS 0B33(7E66) - 0300 TKPB.09T.UP
DTSOUT POS 0B34(7E68) - 0300 TKPB.010T.UP
DTSOUT POS 0B35(7E6A) - 0300 TKPB.011T.UP
DTSOUT POS 0B36(7E6C) - 0300 TKPB.012T.UP
DTSOUT POS 0B37(7E6E) - 0300 TKPB.013T.UP
DTSOUT POS 0B38(7E70) - 0300 TKPB.324T
DTSOUT POS 0B39(7E72) - 0300 TKPB.524T
DTSOUT POS 0B3A(7E74) - 0300 TKPB.527T
DTSOUT POS 0B3B(7E76) - 0300 TKPB.BK1T
DTSOUT POS 0B3C(7E78) - 0300 TKPB.B327T
DTSOUT POS 0B3D(7E7A) - 0300 TKPB.BG1T
DTSOUT POS 0B3E(7E7C) - 0300 TKPB.08T.DN
DTSOUT POS 0B3F(7E7E) - 0300 TKPB.09T.DN
DTSOUT POS 0B42(7E84) - 0500 SWPB.11
DTSOUT POS 0B43(7E86) - 0500 SWPB.12
DTSOUT POS 0B44(7E88) - 0500 SWPB.13
DTSOUT POS 0B45(7E8A) - 0500 SWPB.15
DTSOUT POS 0B46(7E8C) - 0406 SWPB.28
DTSOUT POS 0B47(7E8E) - 0500 SWPB.29
DTSOUT POS 0B48(7E90) - 0500 SWPB.34
DTSOUT POS 0B49(7E92) - 0500 SWPB.14
DTSOUT POS 0B4A(7E94) - 0500 SWPB.16
DTSOUT POS 0B4B(7E96) - 0500 SWPB.17
DTSOUT POS 0B4C(7E98) - 0500 SWPB.19
DTSOUT POS 0B4D(7E9A) - 0500 SWPB.20
DTSOUT POS 0B4E(7E9C) - 0500 SWPB.18
DTSOUT POS 0B4F(7E9E) - 0401 SWPB.21
DTSOUT POS 0B50(7EA0) - 0402 SWPB.22
DTSOUT POS 0B51(7EA2) - 0404 SWPB.24
DTSOUT POS 0B52(7EA4) - 0403 SWPB.23
DTSOUT POS 0B53(7EA6) - 0500 SWPB.39
DTSOUT POS 0B54(7EA8) - 0500 SWPB.40
DTSOUT POS 0B55(7EAA) - 0500 SWPB.43
DTSOUT POS 0B56(7EAC) - 0500 SWPB.38
DTSOUT POS 0B57(7EAE) - 0500 SWPB.46
DTSOUT POS 0B58(7EB0) - 0500 SWPB.30
DTSOUT POS 0B59(7EB2) - 0500 SWPB.27
DTSOUT POS 0B5A(7EB4) - 0500 SWPB.51
DTSOUT POS 0B5B(7EB6) - 0500 SWPB.55
DTSOUT POS 0B5C(7EB8) - 0500 SWPB.52
DTSOUT POS 0B5D(7EBA) - 0500 SWPB.53
DTSOUT POS 0B5E(7EBC) - 0500 SWPB.54
DTSOUT POS 0B5F(7EBE) - 0500 SWPB.56
DTSOUT POS 0B60(7EC0) - 0500 SWPB.57
DTSOUT POS 0B62(7EC4) - 0500 SWPB.64
DTSOUT POS 0B63(7EC6) - 0500 SWPB.66
DTSOUT POS 0B64(7EC8) - 0500 SWPB.70
DTSOUT POS 0B65(7ECA) - 0500 SWPB.58
DTSOUT POS 0B66(7ECC) - 0408 SWPB.59
DTSOUT POS 0B67(7ECE) - 0500 SWPB.62
DTSOUT POS 0B68(7ED0) - 0500 SWPB.68
DTSOUT POS 0B69(7ED2) - 0500 SWPB.60
DTSOUT POS 0B6A(7ED4) - 0500 SWPB.61
DTSOUT POS 0B6B(7ED6) - 0500 SWPB.63
DTSOUT POS 0B6C(7ED8) - 0500 SWPB.65
DTSOUT POS 0B6D(7EDA) - 0500 SWPB.72
DTSOUT POS 0B6E(7EDC) - 0405 SWPB.25
